{
	"total": 2212,
		"start": 0,
		"totalPage": 111,
		"pageIndex": 0,
		"pageSize": 20,
		"sortField": "time",
		"sortOrder": "asc",
		"data": [
		{
			"rid": "2084",
			"lid": "101065",
			"slid": "0",
			"samount": "0",
			"uid": "101850",
			"no": "2",
			"time": "1375372799",
			"amount": "203550.00",
			"money": "200000.00",
			"return_money": "0.00",
			"return_amount": "0.00",
			"remain_amount": "203550.00",
			"loan_fee": "1000.00",
			"late_fee": "548194.00",
			"early": "0",
			"picurl": "",
			"lateurl": "",
			"status": "31",
			"ostatus": "31",
			"uptime": "0",
			"paytime": "1385100306",
			"oktime": "1385100349",
			"uamount": "100050.00",
			"freeze": "0.00",
			"uname": "huangzhanghui",
			"umobile": null,
			"uemail": "huangzhanghui662@163.com",
			"realname": "黄章慧",
			"pnrid": "",
			"pnr": "0",
			"total": 389463.2
		},
		{
			"rid": "2088",
			"lid": "101074",
			"slid": "0",
			"samount": "0",
			"uid": "104023",
			"no": "2",
			"time": "1375372799",
			"amount": "30507.17",
			"money": "26208.38",
			"return_money": "0.00",
			"return_amount": "0.00",
			"remain_amount": "30507.17",
			"loan_fee": "1250.00",
			"late_fee": "85109.22",
			"early": "0",
			"picurl": "",
			"lateurl": "",
			"status": "31",
			"ostatus": "31",
			"uptime": "0",
			"paytime": "1385100483",
			"oktime": "1392809802",
			"uamount": "0.00",
			"freeze": "0.00",
			"uname": "yanqiufang",
			"umobile": null,
			"uemail": "yanqiufang888@163.com",
			"realname": "严秋方",
			"pnrid": "",
			"pnr": "0",
			"total": 60465.65
		},
		{
			"rid": "3140",
			"lid": "101397",
			"slid": "0",
			"samount": "0",
			"uid": "100485",
			"no": "1",
			"time": "1375372799",
			"amount": "162.00",
			"money": "0.00",
			"return_money": "0.00",
			"return_amount": "0.00",
			"remain_amount": "162.00",
			"loan_fee": "45.00",
			"late_fee": "554.76",
			"early": "0",
			"picurl": "",
			"lateurl": "",
			"status": "31",
			"ostatus": "11",
			"uptime": "0",
			"paytime": "1385100489",
			"oktime": "0",
			"uamount": "0.00",
			"freeze": "0.00",
			"uname": "xiaoping",
			"umobile": null,
			"uemail": "xiaoping195602@163.com",
			"realname": "肖平",
			"pnrid": "",
			"pnr": "0",
			"total": 394.13
		},
		{
			"rid": "3143",
			"lid": "101396",
			"slid": "0",
			"samount": "0",
			"uid": "100485",
			"no": "1",
			"time": "1375372799",
			"amount": "157.98",
			"money": "0.00",
			"return_money": "0.00",
			"return_amount": "0.00",
			"remain_amount": "157.98",
			"loan_fee": "44.50",
			"late_fee": "542.65",
			"early": "0",
			"picurl": "",
			"lateurl": "",
			"status": "31",
			"ostatus": "11",
			"uptime": "0",
			"paytime": "1385100619",
			"oktime": "0",
			"uamount": "0.00",
			"freeze": "0.00",
			"uname": "xiaoping",
			"umobile": null,
			"uemail": "xiaoping195602@163.com",
			"realname": "肖平",
			"pnrid": "",
			"pnr": "0",
			"total": 385.52
		},
		{
			"rid": "3145",
			"lid": "101398",
			"slid": "0",
			"samount": "0",
			"uid": "100485",
			"no": "1",
			"time": "1375372799",
			"amount": "169.72",
			"money": "0.00",
			"return_money": "0.00",
			"return_amount": "0.00",
			"remain_amount": "169.72",
			"loan_fee": "46.50",
			"late_fee": "579.47",
			"early": "0",
			"picurl": "upload/loan/101398/repaypic/5307158069f8f.jpg",
			"lateurl": "aabbccdd",
			"status": "11",
			"ostatus": "1",
			"uptime": "0",
			"paytime": "0",
			"oktime": "0",
			"uamount": "0.00",
			"freeze": "0.00",
			"uname": "xiaoping",
			"umobile": null,
			"uemail": "xiaoping195602@163.com",
			"realname": "肖平",
			"pnrid": "",
			"pnr": "0",
			"total": 216.22
		},
		{
			"rid": "3149",
			"lid": "101395",
			"slid": "0",
			"samount": "0",
			"uid": "100485",
			"no": "1",
			"time": "1375372799",
			"amount": "8852.83",
			"money": "8700.00",
			"return_money": "0.00",
			"return_amount": "0.00",
			"remain_amount": "8852.83",
			"loan_fee": "43.50",
			"late_fee": "23842.16",
			"early": "0",
			"picurl": "",
			"lateurl": "",
			"status": "11",
			"ostatus": "1",
			"uptime": "0",
			"paytime": "0",
			"oktime": "0",
			"uamount": "0.00",
			"freeze": "0.00",
			"uname": "xiaoping",
			"umobile": null,
			"uemail": "xiaoping195602@163.com",
			"realname": "肖平",
			"pnrid": "",
			"pnr": "0",
			"total": 8896.33
		},
		{
			"rid": "3150",
			"lid": "101399",
			"slid": "0",
			"samount": "0",
			"uid": "104557",
			"no": "1",
			"time": "1375372799",
			"amount": "254391.67",
			"money": "250000.00",
			"return_money": "0.00",
			"return_amount": "0.00",
			"remain_amount": "254391.67",
			"loan_fee": "1250.00",
			"late_fee": "685119.68",
			"early": "0",
			"picurl": "",
			"lateurl": "",
			"status": "11",
			"ostatus": "1",
			"uptime": "0",
			"paytime": "0",
			"oktime": "0",
			"uamount": "0.00",
			"freeze": "0.00",
			"uname": "qikai",
			"umobile": null,
			"uemail": "qikai889@163.com",
			"realname": "祁凯",
			"pnrid": "",
			"pnr": "0",
			"total": 255641.67
		},
		{
			"rid": "3151",
			"lid": "101400",
			"slid": "0",
			"samount": "0",
			"uid": "104557",
			"no": "1",
			"time": "1375372799",
			"amount": "254391.67",
			"money": "250000.00",
			"return_money": "0.00",
			"return_amount": "0.00",
			"remain_amount": "254391.67",
			"loan_fee": "1250.00",
			"late_fee": "685119.68",
			"early": "0",
			"picurl": "",
			"lateurl": "",
			"status": "11",
			"ostatus": "1",
			"uptime": "0",
			"paytime": "0",
			"oktime": "0",
			"uamount": "0.00",
			"freeze": "0.00",
			"uname": "qikai",
			"umobile": null,
			"uemail": "qikai889@163.com",
			"realname": "祁凯",
			"pnrid": "",
			"pnr": "0",
			"total": 255641.67
		},
		{
			"rid": "3152",
			"lid": "101403",
			"slid": "0",
			"samount": "0",
			"uid": "100364",
			"no": "1",
			"time": "1375372799",
			"amount": "24116.33",
			"money": "23700.00",
			"return_money": "0.00",
			"return_amount": "0.00",
			"remain_amount": "24116.33",
			"loan_fee": "118.50",
			"late_fee": "64949.34",
			"early": "0",
			"picurl": "",
			"lateurl": "",
			"status": "11",
			"ostatus": "1",
			"uptime": "0",
			"paytime": "0",
			"oktime": "0",
			"uamount": "0.00",
			"freeze": "0.00",
			"uname": "zengwei",
			"umobile": null,
			"uemail": "zengwei19790626@163.com",
			"realname": "曾玮",
			"pnrid": "",
			"pnr": "0",
			"total": 24234.83
		},
		{
			"rid": "3153",
			"lid": "101410",
			"slid": "0",
			"samount": "0",
			"uid": "100364",
			"no": "1",
			"time": "1375372799",
			"amount": "518.70",
			"money": "0.00",
			"return_money": "0.00",
			"return_amount": "0.00",
			"remain_amount": "518.70",
			"loan_fee": "136.50",
			"late_fee": "1755.94",
			"early": "0",
			"picurl": "",
			"lateurl": "",
			"status": "11",
			"ostatus": "1",
			"uptime": "0",
			"paytime": "0",
			"oktime": "0",
			"uamount": "0.00",
			"freeze": "0.00",
			"uname": "zengwei",
			"umobile": null,
			"uemail": "zengwei19790626@163.com",
			"realname": "曾玮",
			"pnrid": "",
			"pnr": "0",
			"total": 655.2
		},
		{
			"rid": "3161",
			"lid": "101409",
			"slid": "0",
			"samount": "0",
			"uid": "100364",
			"no": "1",
			"time": "1375372799",
			"amount": "502.85",
			"money": "0.00",
			"return_money": "0.00",
			"return_amount": "0.00",
			"remain_amount": "502.85",
			"loan_fee": "133.50",
			"late_fee": "1705.42",
			"early": "0",
			"picurl": "",
			"lateurl": "",
			"status": "11",
			"ostatus": "1",
			"uptime": "0",
			"paytime": "0",
			"oktime": "0",
			"uamount": "0.00",
			"freeze": "0.00",
			"uname": "zengwei",
			"umobile": null,
			"uemail": "zengwei19790626@163.com",
			"realname": "曾玮",
			"pnrid": "",
			"pnr": "0",
			"total": 636.35
		},
		{
			"rid": "3168",
			"lid": "101411",
			"slid": "0",
			"samount": "0",
			"uid": "100364",
			"no": "1",
			"time": "1375372799",
			"amount": "532.83",
			"money": "0.00",
			"return_money": "0.00",
			"return_amount": "0.00",
			"remain_amount": "532.83",
			"loan_fee": "139.00",
			"late_fee": "1800.50",
			"early": "0",
			"picurl": "",
			"lateurl": "",
			"status": "31",
			"ostatus": "11",
			"uptime": "0",
			"paytime": "1385100339",
			"oktime": "0",
			"uamount": "0.00",
			"freeze": "0.00",
			"uname": "zengwei",
			"umobile": null,
			"uemail": "zengwei19790626@163.com",
			"realname": "曾玮",
			"pnrid": "",
			"pnr": "0",
			"total": 1279.16
		},
		{
			"rid": "3177",
			"lid": "101408",
			"slid": "0",
			"samount": "0",
			"uid": "100364",
			"no": "1",
			"time": "1375372799",
			"amount": "489.07",
			"money": "0.00",
			"return_money": "0.00",
			"return_amount": "0.00",
			"remain_amount": "489.07",
			"loan_fee": "131.00",
			"late_fee": "1661.79",
			"early": "0",
			"picurl": "",
			"lateurl": "",
			"status": "11",
			"ostatus": "1",
			"uptime": "0",
			"paytime": "0",
			"oktime": "0",
			"uamount": "0.00",
			"freeze": "0.00",
			"uname": "zengwei",
			"umobile": null,
			"uemail": "zengwei19790626@163.com",
			"realname": "曾玮",
			"pnrid": "",
			"pnr": "0",
			"total": 620.07
		},
		{
			"rid": "3183",
			"lid": "101407",
			"slid": "0",
			"samount": "0",
			"uid": "100364",
			"no": "1",
			"time": "1375372799",
			"amount": "473.31",
			"money": "0.00",
			"return_money": "0.00",
			"return_amount": "0.00",
			"remain_amount": "473.31",
			"loan_fee": "128.50",
			"late_fee": "1612.85",
			"early": "0",
			"picurl": "",
			"lateurl": "",
			"status": "11",
			"ostatus": "1",
			"uptime": "0",
			"paytime": "0",
			"oktime": "0",
			"uamount": "0.00",
			"freeze": "0.00",
			"uname": "zengwei",
			"umobile": null,
			"uemail": "zengwei19790626@163.com",
			"realname": "曾玮",
			"pnrid": "",
			"pnr": "0",
			"total": 601.81
		},
		{
			"rid": "3188",
			"lid": "101405",
			"slid": "0",
			"samount": "0",
			"uid": "100364",
			"no": "1",
			"time": "1375372799",
			"amount": "444.60",
			"money": "0.00",
			"return_money": "0.00",
			"return_amount": "0.00",
			"remain_amount": "444.60",
			"loan_fee": "123.50",
			"late_fee": "1522.51",
			"early": "0",
			"picurl": "",
			"lateurl": "",
			"status": "11",
			"ostatus": "1",
			"uptime": "0",
			"paytime": "0",
			"oktime": "0",
			"uamount": "0.00",
			"freeze": "0.00",
			"uname": "zengwei",
			"umobile": null,
			"uemail": "zengwei19790626@163.com",
			"realname": "曾玮",
			"pnrid": "",
			"pnr": "0",
			"total": 568.1
		},
		{
			"rid": "3191",
			"lid": "101406",
			"slid": "0",
			"samount": "0",
			"uid": "100364",
			"no": "1",
			"time": "1375372799",
			"amount": "459.90",
			"money": "0.00",
			"return_money": "0.00",
			"return_amount": "0.00",
			"remain_amount": "459.90",
			"loan_fee": "126.00",
			"late_fee": "1570.21",
			"early": "0",
			"picurl": "",
			"lateurl": "",
			"status": "11",
			"ostatus": "1",
			"uptime": "0",
			"paytime": "0",
			"oktime": "0",
			"uamount": "0.00",
			"freeze": "0.00",
			"uname": "zengwei",
			"umobile": null,
			"uemail": "zengwei19790626@163.com",
			"realname": "曾玮",
			"pnrid": "",
			"pnr": "0",
			"total": 585.9
		},
		{
			"rid": "3195",
			"lid": "101401",
			"slid": "0",
			"samount": "0",
			"uid": "104557",
			"no": "1",
			"time": "1375372799",
			"amount": "254391.67",
			"money": "250000.00",
			"return_money": "0.00",
			"return_amount": "0.00",
			"remain_amount": "254391.67",
			"loan_fee": "1250.00",
			"late_fee": "685119.68",
			"early": "0",
			"picurl": "",
			"lateurl": "",
			"status": "11",
			"ostatus": "1",
			"uptime": "0",
			"paytime": "0",
			"oktime": "0",
			"uamount": "0.00",
			"freeze": "0.00",
			"uname": "qikai",
			"umobile": null,
			"uemail": "qikai889@163.com",
			"realname": "祁凯",
			"pnrid": "",
			"pnr": "0",
			"total": 255641.67
		},
		{
			"rid": "3196",
			"lid": "101404",
			"slid": "0",
			"samount": "0",
			"uid": "100364",
			"no": "1",
			"time": "1375372799",
			"amount": "429.55",
			"money": "0.00",
			"return_money": "0.00",
			"return_amount": "0.00",
			"remain_amount": "429.55",
			"loan_fee": "121.00",
			"late_fee": "1475.47",
			"early": "0",
			"picurl": "",
			"lateurl": "",
			"status": "31",
			"ostatus": "31",
			"uptime": "0",
			"paytime": "1375844174",
			"oktime": "1375844178",
			"uamount": "0.00",
			"freeze": "0.00",
			"uname": "zengwei",
			"umobile": null,
			"uemail": "zengwei19790626@163.com",
			"realname": "曾玮",
			"pnrid": "",
			"pnr": "0",
			"total": 576.98
		},
		{
			"rid": "3198",
			"lid": "101402",
			"slid": "0",
			"samount": "0",
			"uid": "104557",
			"no": "1",
			"time": "1375372799",
			"amount": "254391.67",
			"money": "250000.00",
			"return_money": "0.00",
			"return_amount": "0.00",
			"remain_amount": "254391.67",
			"loan_fee": "1250.00",
			"late_fee": "685119.68",
			"early": "0",
			"picurl": "",
			"lateurl": "",
			"status": "31",
			"ostatus": "11",
			"uptime": "0",
			"paytime": "1385100382",
			"oktime": "0",
			"uamount": "0.00",
			"freeze": "0.00",
			"uname": "qikai",
			"umobile": null,
			"uemail": "qikai889@163.com",
			"realname": "祁凯",
			"pnrid": "",
			"pnr": "0",
			"total": 486741.74
		},
		{
			"rid": "3199",
			"lid": "101412",
			"slid": "0",
			"samount": "0",
			"uid": "104564",
			"no": "1",
			"time": "1375372799",
			"amount": "9455.96",
			"money": "7455.96",
			"return_money": "0.00",
			"return_amount": "0.00",
			"remain_amount": "9455.96",
			"loan_fee": "500.00",
			"late_fee": "26681.97",
			"early": "0",
			"picurl": "",
			"lateurl": "",
			"status": "11",
			"ostatus": "1",
			"uptime": "0",
			"paytime": "0",
			"oktime": "0",
			"uamount": "0.00",
			"freeze": "0.00",
			"uname": "huangyinxia",
			"umobile": null,
			"uemail": "huangyinxia555@163.com",
			"realname": "黄银霞",
			"pnrid": "",
			"pnr": "0",
			"total": 9955.96
		}
	],
		"money": "92080738.42",
		"amount": "96416757.54"
}
